{
	"meta": {
		"limit": 20,
		"next": "/api/v1/project/?offset=20&limit=20&format=json",
		"offset": 0,
		"previous": null,
		"total_count": 15381
	},
	"objects": [{
		"absolute_url": "/projects/0bin/",
		"analytics_code": "",
		"canonical_url": "",
		"conf_py_file": "",
		"copyright": "",
		"default_branch": "master",
		"default_version": "latest",
		"description": "A client side encrypted pastebin written in Python. ",
		"django_packages_url": "",
		"documentation_type": "sphinx",
		"downloads": {
			"epub": "//readthedocs.org/projects/0bin/downloads/htmlzip/latest/",
			"htmlzip": "//readthedocs.org/projects/0bin/downloads/htmlzip/latest/",
			"pdf": "//readthedocs.org/projects/0bin/downloads/htmlzip/latest/"
		},
		"id": 3518,
		"language": "en",
		"mirror": false,
		"modified_date": "2014-06-22T02:21:11.587347",
		"name": "0bin",
		"num_major": 0,
		"num_minor": 0,
		"num_point": 0,
		"privacy_level": "public",
		"project_url": "https://github.com/sametmax/0bin",
		"pub_date": "2012-05-19T04:03:59.956003",
		"python_interpreter": "python",
		"repo": "https://github.com/sametmax/0bin.git",
		"repo_type": "git",
		"requirements_file": "",
		"resource_uri": "/api/v1/project/3518/",
		"single_version": false,
		"skip": false,
		"slug": "0bin",
		"subdomain": "http://0bin.readthedocs.org/",
		"suffix": ".rst",
		"theme": "default",
		"use_system_packages": false,
		"use_virtualenv": true,
		"users": ["/api/v1/user/4299/"],
		"version": "",
		"version_privacy_level": "public"
	}, {
		"absolute_url": "/projects/0x42c/",
		"analytics_code": "",
		"canonical_url": "",
		"conf_py_file": "",
		"copyright": "",
		"default_branch": "master",
		"default_version": "latest",
		"description": "A kernel/Operating System for the DCPU-16.",
		"django_packages_url": "",
		"documentation_type": "sphinx",
		"downloads": {
			"epub": "//readthedocs.org/projects/0x42c/downloads/htmlzip/latest/",
			"htmlzip": "//readthedocs.org/projects/0x42c/downloads/htmlzip/latest/",
			"pdf": "//readthedocs.org/projects/0x42c/downloads/htmlzip/latest/"
		},
		"id": 3178,
		"language": "en",
		"mirror": false,
		"modified_date": "2013-12-19T15:19:41.738401",
		"name": "0x42c",
		"num_major": 0,
		"num_minor": 0,
		"num_point": 0,
		"privacy_level": "public",
		"project_url": "",
		"pub_date": "2012-04-17T11:28:27.690685",
		"python_interpreter": "python",
		"repo": "https://github.com/jdiez17/0x42c.git",
		"repo_type": "git",
		"requirements_file": "",
		"resource_uri": "/api/v1/project/3178/",
		"single_version": false,
		"skip": false,
		"slug": "0x42c",
		"subdomain": "http://0x42c.readthedocs.org/",
		"suffix": ".rst",
		"theme": "default",
		"use_system_packages": false,
		"use_virtualenv": false,
		"users": ["/api/v1/user/3895/"],
		"version": "",
		"version_privacy_level": "public"
	}, {
		"absolute_url": "/projects/1/",
		"analytics_code": null,
		"canonical_url": "",
		"conf_py_file": "",
		"copyright": "",
		"default_branch": null,
		"default_version": "latest",
		"description": "",
		"django_packages_url": "",
		"documentation_type": "mkdocs",
		"downloads": {
			"epub": "//readthedocs.org/projects/1/downloads/htmlzip/latest/",
			"htmlzip": "//readthedocs.org/projects/1/downloads/htmlzip/latest/",
			"pdf": "//readthedocs.org/projects/1/downloads/htmlzip/latest/"
		},
		"id": 12407,
		"language": "en",
		"mirror": false,
		"modified_date": "2014-07-26T10:48:58.261225",
		"name": "1",
		"num_major": 2,
		"num_minor": 2,
		"num_point": 2,
		"privacy_level": "public",
		"project_url": "",
		"pub_date": "2014-02-19T06:46:38.890885",
		"python_interpreter": "python",
		"repo": "1",
		"repo_type": "git",
		"requirements_file": null,
		"resource_uri": "/api/v1/project/12407/",
		"single_version": false,
		"skip": false,
		"slug": "1",
		"subdomain": "http://1.readthedocs.org/",
		"suffix": ".rst",
		"theme": "default",
		"use_system_packages": false,
		"use_virtualenv": false,
		"users": ["/api/v1/user/14706/"],
		"version": "",
		"version_privacy_level": "public"
	}, {
		"absolute_url": "/projects/111/",
		"analytics_code": null,
		"canonical_url": "",
		"conf_py_file": "",
		"copyright": "",
		"default_branch": null,
		"default_version": "latest",
		"description": "",
		"django_packages_url": "",
		"documentation_type": "auto",
		"downloads": {
			"epub": "//readthedocs.org/projects/111/downloads/htmlzip/latest/",
			"htmlzip": "//readthedocs.org/projects/111/downloads/htmlzip/latest/",
			"pdf": "//readthedocs.org/projects/111/downloads/htmlzip/latest/"
		},
		"id": 25510,
		"language": "en",
		"mirror": false,
		"modified_date": "2015-02-02T04:48:25.175808",
		"name": "111",
		"num_major": 2,
		"num_minor": 2,
		"num_point": 2,
		"privacy_level": "public",
		"project_url": "",
		"pub_date": "2015-02-02T04:48:25.105364",
		"python_interpreter": "python",
		"repo": "https://github.com/software-security-systems/SecureTowerDocs.git",
		"repo_type": "git",
		"requirements_file": null,
		"resource_uri": "/api/v1/project/25510/",
		"single_version": false,
		"skip": false,
		"slug": "111",
		"subdomain": "http://111.readthedocs.org/",
		"suffix": ".rst",
		"theme": "default",
		"use_system_packages": false,
		"use_virtualenv": false,
		"users": ["/api/v1/user/23893/"],
		"version": "",
		"version_privacy_level": "public"
	}, {
		"absolute_url": "/projects/115wangpan/",
		"analytics_code": "",
		"canonical_url": "",
		"conf_py_file": "",
		"copyright": "",
		"default_branch": "",
		"default_version": "latest",
		"description": "115 Wangpan (115网盘) is an unofficial Python API for 115.com, mainly pertinent to its \"lixian\" (offline) features. Currently, only limited features have been implemented. Supported Python verisons are 2.6, 2.7 and 3.3.",
		"django_packages_url": "",
		"documentation_type": "sphinx",
		"downloads": {
			"epub": "//readthedocs.org/projects/115wangpan/downloads/htmlzip/latest/",
			"htmlzip": "//readthedocs.org/projects/115wangpan/downloads/htmlzip/latest/",
			"pdf": "//readthedocs.org/projects/115wangpan/downloads/htmlzip/latest/"
		},
		"id": 19061,
		"language": "en",
		"mirror": false,
		"modified_date": "2014-09-24T16:48:30.812894",
		"name": "115wangpan",
		"num_major": 2,
		"num_minor": 2,
		"num_point": 2,
		"privacy_level": "public",
		"project_url": "https://github.com/shichao-an/115wangpan",
		"pub_date": "2014-09-11T02:36:25.274349",
		"python_interpreter": "python",
		"repo": "https://github.com/shichao-an/115wangpan.git",
		"repo_type": "git",
		"requirements_file": "docs/requirements.txt",
		"resource_uri": "/api/v1/project/19061/",
		"single_version": false,
		"skip": false,
		"slug": "115wangpan",
		"subdomain": "http://115wangpan.readthedocs.org/",
		"suffix": ".rst",
		"theme": "default",
		"use_system_packages": true,
		"use_virtualenv": true,
		"users": ["/api/v1/user/20614/"],
		"version": "",
		"version_privacy_level": "public"
	}, {
		"absolute_url": "/projects/15-diy-bedroom-decor-ideas/",
		"analytics_code": null,
		"canonical_url": "",
		"conf_py_file": "",
		"copyright": "",
		"default_branch": null,
		"default_version": "latest",
		"description": "You may spend roughly one-third you will sleep, so will not you sleep in the room which contributes to fairly sweet dreams? A great uninspired or disorganized bedroom makes it uncertain unwind, and yes it probably does not necessarily help your personality in the morning, either. Suppose your bedroom is a centerpiece for family moment — maybe you read in the sack, snuggle with the kiddos, or spend special times together with your pets even though ensconced with sex\r\n\r\n\r\n\r\n`source <http://www.bestdesignfirmever.com/15-diy-bedroom-decor-ideas/>`_ ",
		"django_packages_url": "",
		"documentation_type": "sphinx",
		"downloads": {
			"epub": "//readthedocs.org/projects/15-diy-bedroom-decor-ideas/downloads/htmlzip/latest/",
			"htmlzip": "//readthedocs.org/projects/15-diy-bedroom-decor-ideas/downloads/htmlzip/latest/",
			"pdf": "//readthedocs.org/projects/15-diy-bedroom-decor-ideas/downloads/htmlzip/latest/"
		},
		"id": 19301,
		"language": "en",
		"mirror": false,
		"modified_date": "2014-09-17T11:22:39.956101",
		"name": "15 Diy Bedroom Decor Ideas",
		"num_major": 2,
		"num_minor": 2,
		"num_point": 2,
		"privacy_level": "public",
		"project_url": "",
		"pub_date": "2014-09-17T11:22:39.956072",
		"python_interpreter": "python",
		"repo": "http://www.bestdesignfirmever.com/15-diy-bedroom-decor-ideas/",
		"repo_type": "git",
		"requirements_file": null,
		"resource_uri": "/api/v1/project/19301/",
		"single_version": false,
		"skip": false,
		"slug": "15-diy-bedroom-decor-ideas",
		"subdomain": "http://15-diy-bedroom-decor-ideas.readthedocs.org/",
		"suffix": ".rst",
		"theme": "default",
		"use_system_packages": false,
		"use_virtualenv": false,
		"users": ["/api/v1/user/20785/"],
		"version": "",
		"version_privacy_level": "public"
	}, {
		"absolute_url": "/projects/1c-management-small-firm/",
		"analytics_code": "",
		"canonical_url": "",
		"conf_py_file": "",
		"copyright": "",
		"default_branch": "",
		"default_version": "latest",
		"description": "",
		"django_packages_url": "",
		"documentation_type": "sphinx",
		"downloads": {
			"epub": "//readthedocs.org/projects/1c-management-small-firm/downloads/htmlzip/latest/",
			"htmlzip": "//readthedocs.org/projects/1c-management-small-firm/downloads/htmlzip/latest/",
			"pdf": "//readthedocs.org/projects/1c-management-small-firm/downloads/htmlzip/latest/"
		},
		"id": 10531,
		"language": "ru",
		"mirror": false,
		"modified_date": "2014-07-21T04:31:59.681870",
		"name": "1c-management-small-firm",
		"num_major": 2,
		"num_minor": 2,
		"num_point": 2,
		"privacy_level": "public",
		"project_url": "http://eetk.ru/",
		"pub_date": "2013-12-08T20:24:34.279358",
		"python_interpreter": "python",
		"repo": "https://github.com/eetk/1c-management-small-firm",
		"repo_type": "git",
		"requirements_file": "",
		"resource_uri": "/api/v1/project/10531/",
		"single_version": false,
		"skip": false,
		"slug": "1c-management-small-firm",
		"subdomain": "http://1c-management-small-firm.readthedocs.org/",
		"suffix": ".rst",
		"theme": "default",
		"use_system_packages": false,
		"use_virtualenv": false,
		"users": ["/api/v1/user/13109/"],
		"version": "",
		"version_privacy_level": "public"
	}, {
		"absolute_url": "/projects/1dmtinvspgl1/",
		"analytics_code": null,
		"canonical_url": "http://1DMTinvSPGL1.readthedocs.org/",
		"conf_py_file": "",
		"copyright": "",
		"default_branch": null,
		"default_version": "latest",
		"description": "Inverse Problem for the 1D magnetotelluric problem using SPGL1general.\r\n\r\nThe work is a part of the CPSC 546: Computational Optimization course project. Following the implementation of the 1D MT forward problem described by Haber et al., 2000, we then apply the generalized SPGL1 to solve the inverse problem.\r\n\r\nReferences:\r\n\r\nAY Aravkin, JV Burke, and MP Friedlander. Variational Properties of Value Functions. SIAM Journal on optimization, 23(3):1689-1717, 2013.\r\n\r\nE Haber, U Ascher, and DW Oldenburg. On optimization techniques for solving nonlinear inverse problems. Inverse problems, (16):1263-1280, 2000.\r\n\r\nE van den Berg and MP Friedlander. Probing the Pareto frontier for basis pursuit solutions. SIAM Journal on Scientific Computing, 31(2):890-912, 2008.\r\n\r\nE van den Berg and MP Friedlander. Sparse optimization with least-squares constraints. SIAM Journal on Optimization, 21(4):1201?1229, 2011.",
		"django_packages_url": "",
		"documentation_type": "sphinx",
		"downloads": {
			"epub": "//readthedocs.org/projects/1dmtinvspgl1/downloads/htmlzip/latest/",
			"htmlzip": "//readthedocs.org/projects/1dmtinvspgl1/downloads/htmlzip/latest/",
			"pdf": "//readthedocs.org/projects/1dmtinvspgl1/downloads/htmlzip/latest/"
		},
		"id": 13951,
		"language": "en",
		"mirror": false,
		"modified_date": "2014-04-08T13:08:01.376543",
		"name": "1DMTinvSPGL1",
		"num_major": 2,
		"num_minor": 2,
		"num_point": 2,
		"privacy_level": "public",
		"project_url": "https://github.com/lheagy/1DMTinvSPGL1",
		"pub_date": "2014-04-08T13:06:16.195329",
		"python_interpreter": "python",
		"repo": "https://github.com/lheagy/1DMTinvSPGL1",
		"repo_type": "git",
		"requirements_file": null,
		"resource_uri": "/api/v1/project/13951/",
		"single_version": false,
		"skip": false,
		"slug": "1dmtinvspgl1",
		"subdomain": "http://1dmtinvspgl1.readthedocs.org/",
		"suffix": ".rst",
		"theme": "default",
		"use_system_packages": false,
		"use_virtualenv": false,
		"users": ["/api/v1/user/16051/"],
		"version": "",
		"version_privacy_level": "public"
	}, {
		"absolute_url": "/projects/1stalphaomega/",
		"analytics_code": null,
		"canonical_url": "https://readthedics.org/",
		"conf_py_file": "",
		"copyright": "",
		"default_branch": null,
		"default_version": "latest",
		"description": ":doc:``Your text to link here... <http://www.facebook.com/@queenhope.jaquez.com>`_\r\n.. code-block:: python\r\n\r\n    Code here...\r\n <https://www.google.com>`",
		"django_packages_url": "",
		"documentation_type": "sphinx",
		"downloads": {
			"epub": "//readthedocs.org/projects/1stalphaomega/downloads/htmlzip/latest/",
			"htmlzip": "//readthedocs.org/projects/1stalphaomega/downloads/htmlzip/latest/",
			"pdf": "//readthedocs.org/projects/1stalphaomega/downloads/htmlzip/latest/"
		},
		"id": 21853,
		"language": "en",
		"mirror": false,
		"modified_date": "2014-11-22T09:52:25.962178",
		"name": "1stAlphaOmega",
		"num_major": 2,
		"num_minor": 2,
		"num_point": 2,
		"privacy_level": "public",
		"project_url": "https://www.google.com/",
		"pub_date": "2014-11-22T09:45:07.107214",
		"python_interpreter": "python",
		"repo": "https://github.com/QueenHopeJaquez/1stAlphaOmega",
		"repo_type": "git",
		"requirements_file": null,
		"resource_uri": "/api/v1/project/21853/",
		"single_version": false,
		"skip": false,
		"slug": "1stalphaomega",
		"subdomain": "http://1stalphaomega.readthedocs.org/",
		"suffix": ".rst",
		"theme": "default",
		"use_system_packages": false,
		"use_virtualenv": false,
		"users": ["/api/v1/user/21212/"],
		"version": "",
		"version_privacy_level": "public"
	}, {
		"absolute_url": "/projects/2013-caltech-workshop/",
		"analytics_code": "",
		"canonical_url": "",
		"conf_py_file": "",
		"copyright": "",
		"default_branch": "",
		"default_version": "latest",
		"description": "",
		"django_packages_url": "",
		"documentation_type": "sphinx",
		"downloads": {
			"epub": "//readthedocs.org/projects/2013-caltech-workshop/downloads/htmlzip/latest/",
			"htmlzip": "//readthedocs.org/projects/2013-caltech-workshop/downloads/htmlzip/latest/",
			"pdf": "//readthedocs.org/projects/2013-caltech-workshop/downloads/htmlzip/latest/"
		},
		"id": 8958,
		"language": "en",
		"mirror": false,
		"modified_date": "2014-07-12T19:35:10.689416",
		"name": "2013-caltech-workshop",
		"num_major": 2,
		"num_minor": 2,
		"num_point": 2,
		"privacy_level": "public",
		"project_url": "https://github.com/ged-lab/2013-caltech-workshop",
		"pub_date": "2013-09-14T23:15:55.577586",
		"python_interpreter": "python",
		"repo": "https://github.com/ged-lab/2013-caltech-workshop.git",
		"repo_type": "git",
		"requirements_file": "",
		"resource_uri": "/api/v1/project/8958/",
		"single_version": false,
		"skip": false,
		"slug": "2013-caltech-workshop",
		"subdomain": "http://2013-caltech-workshop.readthedocs.org/",
		"suffix": ".rst",
		"theme": "default",
		"use_system_packages": false,
		"use_virtualenv": false,
		"users": ["/api/v1/user/4417/"],
		"version": "",
		"version_privacy_level": "public"
	}, {
		"absolute_url": "/projects/2013-cse801/",
		"analytics_code": "",
		"canonical_url": "",
		"conf_py_file": "",
		"copyright": "",
		"default_branch": "",
		"default_version": "latest",
		"description": "",
		"django_packages_url": "",
		"documentation_type": "sphinx",
		"downloads": {
			"epub": "//readthedocs.org/projects/2013-cse801/downloads/htmlzip/latest/",
			"htmlzip": "//readthedocs.org/projects/2013-cse801/downloads/htmlzip/latest/",
			"pdf": "//readthedocs.org/projects/2013-cse801/downloads/htmlzip/latest/"
		},
		"id": 9199,
		"language": "en",
		"mirror": false,
		"modified_date": "2014-03-17T07:25:09.026461",
		"name": "2013-cse801",
		"num_major": 2,
		"num_minor": 2,
		"num_point": 2,
		"privacy_level": "public",
		"project_url": "",
		"pub_date": "2013-10-01T22:34:08.107137",
		"python_interpreter": "python",
		"repo": "https://github.com/beacon-center/2013-intro-computational-science.git",
		"repo_type": "git",
		"requirements_file": "",
		"resource_uri": "/api/v1/project/9199/",
		"single_version": false,
		"skip": false,
		"slug": "2013-cse801",
		"subdomain": "http://2013-cse801.readthedocs.org/",
		"suffix": ".rst",
		"theme": "default",
		"use_system_packages": false,
		"use_virtualenv": false,
		"users": ["/api/v1/user/4417/"],
		"version": "",
		"version_privacy_level": "public"
	}, {
		"absolute_url": "/projects/2013-msu-zero-entry/",
		"analytics_code": "",
		"canonical_url": "",
		"conf_py_file": "",
		"copyright": "",
		"default_branch": "",
		"default_version": "latest",
		"description": "",
		"django_packages_url": "",
		"documentation_type": "sphinx",
		"downloads": {
			"epub": "//readthedocs.org/projects/2013-msu-zero-entry/downloads/htmlzip/latest/",
			"htmlzip": "//readthedocs.org/projects/2013-msu-zero-entry/downloads/htmlzip/latest/",
			"pdf": "//readthedocs.org/projects/2013-msu-zero-entry/downloads/htmlzip/latest/"
		},
		"id": 9074,
		"language": "en",
		"mirror": false,
		"modified_date": "2013-09-25T11:47:03.491426",
		"name": "2013-msu-zero-entry",
		"num_major": 2,
		"num_minor": 2,
		"num_point": 2,
		"privacy_level": "public",
		"project_url": "",
		"pub_date": "2013-09-23T10:08:00.310784",
		"python_interpreter": "python",
		"repo": "https://github.com/ged-lab/2013-msu-zero-entry.git",
		"repo_type": "git",
		"requirements_file": "",
		"resource_uri": "/api/v1/project/9074/",
		"single_version": false,
		"skip": false,
		"slug": "2013-msu-zero-entry",
		"subdomain": "http://2013-msu-zero-entry.readthedocs.org/",
		"suffix": ".rst",
		"theme": "default",
		"use_system_packages": false,
		"use_virtualenv": false,
		"users": ["/api/v1/user/4417/"],
		"version": "",
		"version_privacy_level": "public"
	}, {
		"absolute_url": "/projects/2013-norwich-bioinfo/",
		"analytics_code": "",
		"canonical_url": "",
		"conf_py_file": "",
		"copyright": "",
		"default_branch": "",
		"default_version": "latest",
		"description": "",
		"django_packages_url": "",
		"documentation_type": "sphinx",
		"downloads": {
			"epub": "//readthedocs.org/projects/2013-norwich-bioinfo/downloads/htmlzip/latest/",
			"htmlzip": "//readthedocs.org/projects/2013-norwich-bioinfo/downloads/htmlzip/latest/",
			"pdf": "//readthedocs.org/projects/2013-norwich-bioinfo/downloads/htmlzip/latest/"
		},
		"id": 9768,
		"language": "en",
		"mirror": false,
		"modified_date": "2014-07-18T02:14:33.074214",
		"name": "2013-norwich-bioinfo",
		"num_major": 2,
		"num_minor": 2,
		"num_point": 2,
		"privacy_level": "public",
		"project_url": "",
		"pub_date": "2013-11-06T01:34:46.372871",
		"python_interpreter": "python",
		"repo": "http://github.com/ngs-docs/2013-norwich-bioinfo",
		"repo_type": "git",
		"requirements_file": "",
		"resource_uri": "/api/v1/project/9768/",
		"single_version": false,
		"skip": false,
		"slug": "2013-norwich-bioinfo",
		"subdomain": "http://2013-norwich-bioinfo.readthedocs.org/",
		"suffix": ".rst",
		"theme": "default",
		"use_system_packages": false,
		"use_virtualenv": false,
		"users": ["/api/v1/user/4417/"],
		"version": "",
		"version_privacy_level": "public"
	}, {
		"absolute_url": "/projects/2013-norwich-biology/",
		"analytics_code": "",
		"canonical_url": "",
		"conf_py_file": "",
		"copyright": "",
		"default_branch": "",
		"default_version": "latest",
		"description": "",
		"django_packages_url": "",
		"documentation_type": "sphinx",
		"downloads": {
			"epub": "//readthedocs.org/projects/2013-norwich-biology/downloads/htmlzip/latest/",
			"htmlzip": "//readthedocs.org/projects/2013-norwich-biology/downloads/htmlzip/latest/",
			"pdf": "//readthedocs.org/projects/2013-norwich-biology/downloads/htmlzip/latest/"
		},
		"id": 9794,
		"language": "en",
		"mirror": false,
		"modified_date": "2014-07-30T09:57:29.286699",
		"name": "2013-norwich-biology",
		"num_major": 2,
		"num_minor": 2,
		"num_point": 2,
		"privacy_level": "public",
		"project_url": "",
		"pub_date": "2013-11-07T00:27:13.172508",
		"python_interpreter": "python",
		"repo": "https://github.com/ngs-docs/2013-norwich-biology.git",
		"repo_type": "git",
		"requirements_file": "",
		"resource_uri": "/api/v1/project/9794/",
		"single_version": false,
		"skip": false,
		"slug": "2013-norwich-biology",
		"subdomain": "http://2013-norwich-biology.readthedocs.org/",
		"suffix": ".rst",
		"theme": "default",
		"use_system_packages": false,
		"use_virtualenv": false,
		"users": ["/api/v1/user/4417/"],
		"version": "",
		"version_privacy_level": "public"
	}, {
		"absolute_url": "/projects/2013-sqer/",
		"analytics_code": "",
		"canonical_url": "",
		"conf_py_file": "",
		"copyright": "",
		"default_branch": "",
		"default_version": "latest",
		"description": "",
		"django_packages_url": "",
		"documentation_type": "sphinx",
		"downloads": {
			"epub": "//readthedocs.org/projects/2013-sqer/downloads/htmlzip/latest/",
			"htmlzip": "//readthedocs.org/projects/2013-sqer/downloads/htmlzip/latest/",
			"pdf": "//readthedocs.org/projects/2013-sqer/downloads/htmlzip/latest/"
		},
		"id": 9776,
		"language": "en",
		"mirror": false,
		"modified_date": "2014-06-20T03:43:16.129363",
		"name": "2013-sqer",
		"num_major": 2,
		"num_minor": 2,
		"num_point": 2,
		"privacy_level": "public",
		"project_url": "",
		"pub_date": "2013-11-06T09:47:55.423158",
		"python_interpreter": "python",
		"repo": "https://github.com/jherrero/test20131006.git",
		"repo_type": "git",
		"requirements_file": "",
		"resource_uri": "/api/v1/project/9776/",
		"single_version": false,
		"skip": false,
		"slug": "2013-sqer",
		"subdomain": "http://2013-sqer.readthedocs.org/",
		"suffix": ".rst",
		"theme": "default",
		"use_system_packages": false,
		"use_virtualenv": false,
		"users": ["/api/v1/user/12343/"],
		"version": "",
		"version_privacy_level": "public"
	}, {
		"absolute_url": "/projects/2013-sqer-tgac/",
		"analytics_code": "",
		"canonical_url": "",
		"conf_py_file": "",
		"copyright": "",
		"default_branch": "",
		"default_version": "latest",
		"description": "",
		"django_packages_url": "",
		"documentation_type": "sphinx",
		"downloads": {
			"epub": "//readthedocs.org/projects/2013-sqer-tgac/downloads/htmlzip/latest/",
			"htmlzip": "//readthedocs.org/projects/2013-sqer-tgac/downloads/htmlzip/latest/",
			"pdf": "//readthedocs.org/projects/2013-sqer-tgac/downloads/htmlzip/latest/"
		},
		"id": 9774,
		"language": "en",
		"mirror": false,
		"modified_date": "2013-11-06T09:59:29.565108",
		"name": "2013-sqer-tgac",
		"num_major": 2,
		"num_minor": 2,
		"num_point": 2,
		"privacy_level": "public",
		"project_url": "",
		"pub_date": "2013-11-06T09:47:12.572000",
		"python_interpreter": "python",
		"repo": "https://github.com/ngs-docs/sqer-demo.git",
		"repo_type": "git",
		"requirements_file": "",
		"resource_uri": "/api/v1/project/9774/",
		"single_version": false,
		"skip": false,
		"slug": "2013-sqer-tgac",
		"subdomain": "http://2013-sqer-tgac.readthedocs.org/",
		"suffix": ".rst",
		"theme": "default",
		"use_system_packages": false,
		"use_virtualenv": false,
		"users": ["/api/v1/user/4417/"],
		"version": "",
		"version_privacy_level": "public"
	}, {
		"absolute_url": "/projects/2013-swc-az/",
		"analytics_code": "",
		"canonical_url": "",
		"conf_py_file": "",
		"copyright": "",
		"default_branch": "",
		"default_version": "latest",
		"description": "",
		"django_packages_url": "",
		"documentation_type": "sphinx",
		"downloads": {
			"epub": "//readthedocs.org/projects/2013-swc-az/downloads/htmlzip/latest/",
			"htmlzip": "//readthedocs.org/projects/2013-swc-az/downloads/htmlzip/latest/",
			"pdf": "//readthedocs.org/projects/2013-swc-az/downloads/htmlzip/latest/"
		},
		"id": 6820,
		"language": "en",
		"mirror": false,
		"modified_date": "2013-04-06T19:03:40.353286",
		"name": "2013-swc-az",
		"num_major": 0,
		"num_minor": 0,
		"num_point": 0,
		"privacy_level": "public",
		"project_url": "",
		"pub_date": "2013-04-02T22:09:40.663812",
		"python_interpreter": "python",
		"repo": "https://github.com/swcarpentry/2013-04-az.git",
		"repo_type": "git",
		"requirements_file": "",
		"resource_uri": "/api/v1/project/6820/",
		"single_version": false,
		"skip": false,
		"slug": "2013-swc-az",
		"subdomain": "http://2013-swc-az.readthedocs.org/",
		"suffix": ".rst",
		"theme": "default",
		"use_system_packages": false,
		"use_virtualenv": false,
		"users": ["/api/v1/user/4417/"],
		"version": "",
		"version_privacy_level": "public"
	}, {
		"absolute_url": "/projects/2013-swc-uw-ctb/",
		"analytics_code": "",
		"canonical_url": "",
		"conf_py_file": "",
		"copyright": "",
		"default_branch": "",
		"default_version": "latest",
		"description": "",
		"django_packages_url": "",
		"documentation_type": "sphinx",
		"downloads": {
			"epub": "//readthedocs.org/projects/2013-swc-uw-ctb/downloads/htmlzip/latest/",
			"htmlzip": "//readthedocs.org/projects/2013-swc-uw-ctb/downloads/htmlzip/latest/",
			"pdf": "//readthedocs.org/projects/2013-swc-uw-ctb/downloads/htmlzip/latest/"
		},
		"id": 6413,
		"language": "en",
		"mirror": false,
		"modified_date": "2013-03-12T13:33:03.740514",
		"name": "2013-swc-uw-ctb",
		"num_major": 0,
		"num_minor": 0,
		"num_point": 0,
		"privacy_level": "public",
		"project_url": "",
		"pub_date": "2013-02-25T08:57:02.170497",
		"python_interpreter": "python",
		"repo": "https://github.com/swcarpentry/2013-02-uw-ctb.git",
		"repo_type": "git",
		"requirements_file": "",
		"resource_uri": "/api/v1/project/6413/",
		"single_version": false,
		"skip": false,
		"slug": "2013-swc-uw-ctb",
		"subdomain": "http://2013-swc-uw-ctb.readthedocs.org/",
		"suffix": ".rst",
		"theme": "default",
		"use_system_packages": false,
		"use_virtualenv": false,
		"users": ["/api/v1/user/4417/"],
		"version": "",
		"version_privacy_level": "public"
	}, {
		"absolute_url": "/projects/2013-uw-zero-entry/",
		"analytics_code": "",
		"canonical_url": "",
		"conf_py_file": "",
		"copyright": "",
		"default_branch": "",
		"default_version": "latest",
		"description": "",
		"django_packages_url": "",
		"documentation_type": "sphinx",
		"downloads": {
			"epub": "//readthedocs.org/projects/2013-uw-zero-entry/downloads/htmlzip/latest/",
			"htmlzip": "//readthedocs.org/projects/2013-uw-zero-entry/downloads/htmlzip/latest/",
			"pdf": "//readthedocs.org/projects/2013-uw-zero-entry/downloads/htmlzip/latest/"
		},
		"id": 9161,
		"language": "en",
		"mirror": false,
		"modified_date": "2013-10-01T01:03:47.512802",
		"name": "2013-uw-zero-entry",
		"num_major": 2,
		"num_minor": 2,
		"num_point": 2,
		"privacy_level": "public",
		"project_url": "",
		"pub_date": "2013-09-28T09:46:04.361785",
		"python_interpreter": "python",
		"repo": "https://github.com/beacon-center/2013-uw-zero-entry.git",
		"repo_type": "git",
		"requirements_file": "",
		"resource_uri": "/api/v1/project/9161/",
		"single_version": false,
		"skip": false,
		"slug": "2013-uw-zero-entry",
		"subdomain": "http://2013-uw-zero-entry.readthedocs.org/",
		"suffix": ".rst",
		"theme": "default",
		"use_system_packages": false,
		"use_virtualenv": false,
		"users": ["/api/v1/user/4417/"],
		"version": "",
		"version_privacy_level": "public"
	}, {
		"absolute_url": "/projects/2014-5-metagenomics-workshop/",
		"analytics_code": null,
		"canonical_url": "",
		"conf_py_file": "",
		"copyright": "",
		"default_branch": null,
		"default_version": "latest",
		"description": "Workshop for SciLifeLab Metagenomics workshop 2014 21-23 May.",
		"django_packages_url": "",
		"documentation_type": "sphinx",
		"downloads": {
			"epub": "//readthedocs.org/projects/2014-5-metagenomics-workshop/downloads/htmlzip/latest/",
			"htmlzip": "//readthedocs.org/projects/2014-5-metagenomics-workshop/downloads/htmlzip/latest/",
			"pdf": "//readthedocs.org/projects/2014-5-metagenomics-workshop/downloads/htmlzip/latest/"
		},
		"id": 15239,
		"language": "en",
		"mirror": false,
		"modified_date": "2014-05-23T07:14:01.818408",
		"name": "2014-5-metagenomics-workshop",
		"num_major": 2,
		"num_minor": 2,
		"num_point": 2,
		"privacy_level": "public",
		"project_url": "",
		"pub_date": "2014-05-18T07:24:27.203178",
		"python_interpreter": "python",
		"repo": "http://github.com/inodb/2014-5-metagenomics-workshop.git",
		"repo_type": "git",
		"requirements_file": null,
		"resource_uri": "/api/v1/project/15239/",
		"single_version": false,
		"skip": false,
		"slug": "2014-5-metagenomics-workshop",
		"subdomain": "http://2014-5-metagenomics-workshop.readthedocs.org/",
		"suffix": ".rst",
		"theme": "default",
		"use_system_packages": false,
		"use_virtualenv": false,
		"users": ["/api/v1/user/17339/"],
		"version": "",
		"version_privacy_level": "public"
	}]
}
