{
	"meta": {
		"limit": 20,
		"next": "/api/v1/user/?offset=20&limit=20&format=json",
		"offset": 0,
		"previous": null,
		"total_count": 23917
	},
	"objects": [{
		"first_name": "",
		"id": 41,
		"last_login": "2011-07-02T13:45:41.611461",
		"last_name": "",
		"resource_uri": "/api/v1/user/41/",
		"username": "willhardy"
	}, {
		"first_name": "",
		"id": 5,
		"last_login": "2010-08-15T23:53:38.329873",
		"last_name": "",
		"resource_uri": "/api/v1/user/5/",
		"username": "travis"
	}, {
		"first_name": "",
		"id": 38,
		"last_login": "2010-08-23T08:33:11.317785",
		"last_name": "",
		"resource_uri": "/api/v1/user/38/",
		"username": "ee_lars"
	}, {
		"first_name": "Fred",
		"id": 54,
		"last_login": "2011-07-12T07:21:34.622936",
		"last_name": "Drake",
		"resource_uri": "/api/v1/user/54/",
		"username": "fdrake"
	}, {
		"first_name": "",
		"id": 32,
		"last_login": "2010-08-17T03:17:14.352374",
		"last_name": "",
		"resource_uri": "/api/v1/user/32/",
		"username": "ksamuel"
	}, {
		"first_name": "",
		"id": 18,
		"last_login": "2010-08-16T12:33:06.926595",
		"last_name": "",
		"resource_uri": "/api/v1/user/18/",
		"username": "jaearess"
	}, {
		"first_name": "",
		"id": 26,
		"last_login": "2011-06-20T15:04:30.899873",
		"last_name": "",
		"resource_uri": "/api/v1/user/26/",
		"username": "jemerick"
	}, {
		"first_name": "",
		"id": 19,
		"last_login": "2010-08-16T16:12:43.277212",
		"last_name": "",
		"resource_uri": "/api/v1/user/19/",
		"username": "alarin"
	}, {
		"first_name": "",
		"id": 45,
		"last_login": "2010-08-17T08:30:27.827167",
		"last_name": "",
		"resource_uri": "/api/v1/user/45/",
		"username": "pauldiacon"
	}, {
		"first_name": "",
		"id": 20,
		"last_login": "2010-08-16T21:42:56.335055",
		"last_name": "",
		"resource_uri": "/api/v1/user/20/",
		"username": "msaelices"
	}, {
		"first_name": "",
		"id": 33,
		"last_login": "2010-08-17T03:46:41.757985",
		"last_name": "",
		"resource_uri": "/api/v1/user/33/",
		"username": "jturnbull"
	}, {
		"first_name": "",
		"id": 22,
		"last_login": "2010-08-16T23:16:18.979558",
		"last_name": "",
		"resource_uri": "/api/v1/user/22/",
		"username": "bnmrrs"
	}, {
		"first_name": "",
		"id": 30,
		"last_login": "2010-08-17T02:51:50.172214",
		"last_name": "",
		"resource_uri": "/api/v1/user/30/",
		"username": "DaNmarner"
	}, {
		"first_name": "",
		"id": 29,
		"last_login": "2010-08-17T03:06:25.937991",
		"last_name": "",
		"resource_uri": "/api/v1/user/29/",
		"username": "djerdo"
	}, {
		"first_name": "",
		"id": 42,
		"last_login": "2010-08-17T06:59:34.373353",
		"last_name": "",
		"resource_uri": "/api/v1/user/42/",
		"username": "dariusdamalakas"
	}, {
		"first_name": "",
		"id": 31,
		"last_login": "2010-10-27T03:18:25.299726",
		"last_name": "",
		"resource_uri": "/api/v1/user/31/",
		"username": "martin"
	}, {
		"first_name": "",
		"id": 9,
		"last_login": "2010-11-13T14:48:47.599829",
		"last_name": "",
		"resource_uri": "/api/v1/user/9/",
		"username": "charles"
	}, {
		"first_name": "",
		"id": 27,
		"last_login": "2010-08-17T02:30:43.217308",
		"last_name": "",
		"resource_uri": "/api/v1/user/27/",
		"username": "manhigan"
	}, {
		"first_name": "",
		"id": 36,
		"last_login": "2011-07-22T04:06:11.532119",
		"last_name": "",
		"resource_uri": "/api/v1/user/36/",
		"username": "harobed"
	}, {
		"first_name": "",
		"id": 43,
		"last_login": "2010-08-17T07:00:24.168704",
		"last_name": "",
		"resource_uri": "/api/v1/user/43/",
		"username": "fredreichbier"
	}]
}
